{
  "_class": "shapePath",
  "booleanOperation": -1,
  "do_objectID": "BBD1AFE8-BF21-4230-B0D0-5850B4602F3F",
  "edited": true,
  "exportOptions": {
    "_class": "exportOptions",
    "exportFormats": [
    ],
    "includedLayerIds": [
    ],
    "layerOptions": 0,
    "shouldTrim": false
  },
  "frame": {
    "_class": "rect",
    "constrainProportions": false,
    "height": 16,
    "width": 16,
    "x": 0,
    "y": 0
  },
  "isFlippedHorizontal": false,
  "isFlippedVertical": false,
  "isLocked": false,
  "isVisible": true,
  "layerListExpandedType": 0,
  "name": "Path",
  "nameIsFixed": false,
  "path": {
    "_class": "path",
    "isClosed": true,
    "pointRadiusBehaviour": 1,
    "points": [
      {
        "_class": "curvePoint",
        "cornerRadius": 0,
        "curveFrom": "{0.4375, 0.4375}",
        "curveMode": 1,
        "curveTo": "{0.4375, 0.4375}",
        "hasCurveFrom": false,
        "hasCurveTo": false,
        "point": "{0.4375, 0.4375}"
      },
      {
        "_class": "curvePoint",
        "cornerRadius": 0,
        "curveFrom": "{0.4375, 0.02798220313557543}",
        "curveMode": 4,
        "curveTo": "{0.4375, 0.0625}",
        "hasCurveFrom": true,
        "hasCurveTo": false,
        "point": "{0.4375, 0.0625}"
      },
      {
        "_class": "curvePoint",
        "cornerRadius": 0,
        "curveFrom": "{0.53451779686442458, -6.3408164165454163e-18}",
        "curveMode": 2,
        "curveTo": "{0.46548220313557542, 6.3408164165454163e-18}",
        "hasCurveFrom": true,
        "hasCurveTo": true,
        "point": "{0.5, 0}"
      },
      {
        "_class": "curvePoint",
        "cornerRadius": 0,
        "curveFrom": "{0.5625, 0.062499999999999986}",
        "curveMode": 4,
        "curveTo": "{0.5625, 0.027982203135575402}",
        "hasCurveFrom": false,
        "hasCurveTo": true,
        "point": "{0.5625, 0.062499999999999986}"
      },
      {
        "_class": "curvePoint",
        "cornerRadius": 0,
        "curveFrom": "{0.5625, 0.4375}",
        "curveMode": 1,
        "curveTo": "{0.5625, 0.4375}",
        "hasCurveFrom": false,
        "hasCurveTo": false,
        "point": "{0.5625, 0.4375}"
      },
      {
        "_class": "curvePoint",
        "cornerRadius": 0,
        "curveFrom": "{0.97201779686442458, 0.4375}",
        "curveMode": 4,
        "curveTo": "{0.9375, 0.4375}",
        "hasCurveFrom": true,
        "hasCurveTo": false,
        "point": "{0.9375, 0.4375}"
      },
      {
        "_class": "curvePoint",
        "cornerRadius": 0,
        "curveFrom": "{1, 0.53451779686442458}",
        "curveMode": 2,
        "curveTo": "{1, 0.46548220313557542}",
        "hasCurveFrom": true,
        "hasCurveTo": true,
        "point": "{1, 0.5}"
      },
      {
        "_class": "curvePoint",
        "cornerRadius": 0,
        "curveFrom": "{0.9375, 0.5625}",
        "curveMode": 4,
        "curveTo": "{0.97201779686442458, 0.5625}",
        "hasCurveFrom": false,
        "hasCurveTo": true,
        "point": "{0.9375, 0.5625}"
      },
      {
        "_class": "curvePoint",
        "cornerRadius": 0,
        "curveFrom": "{0.5625, 0.5625}",
        "curveMode": 1,
        "curveTo": "{0.5625, 0.5625}",
        "hasCurveFrom": false,
        "hasCurveTo": false,
        "point": "{0.5625, 0.5625}"
      },
      {
        "_class": "curvePoint",
        "cornerRadius": 0,
        "curveFrom": "{0.5625, 0.97201779686442458}",
        "curveMode": 4,
        "curveTo": "{0.5625, 0.9375}",
        "hasCurveFrom": true,
        "hasCurveTo": false,
        "point": "{0.5625, 0.9375}"
      },
      {
        "_class": "curvePoint",
        "cornerRadius": 0,
        "curveFrom": "{0.46548220313557542, 1}",
        "curveMode": 2,
        "curveTo": "{0.53451779686442458, 1}",
        "hasCurveFrom": true,
        "hasCurveTo": true,
        "point": "{0.5, 1}"
      },
      {
        "_class": "curvePoint",
        "cornerRadius": 0,
        "curveFrom": "{0.4375, 0.9375}",
        "curveMode": 4,
        "curveTo": "{0.4375, 0.97201779686442458}",
        "hasCurveFrom": false,
        "hasCurveTo": true,
        "point": "{0.4375, 0.9375}"
      },
      {
        "_class": "curvePoint",
        "cornerRadius": 0,
        "curveFrom": "{0.4375, 0.5625}",
        "curveMode": 1,
        "curveTo": "{0.4375, 0.5625}",
        "hasCurveFrom": false,
        "hasCurveTo": false,
        "point": "{0.4375, 0.5625}"
      },
      {
        "_class": "curvePoint",
        "cornerRadius": 0,
        "curveFrom": "{0.027982203135575416, 0.5625}",
        "curveMode": 4,
        "curveTo": "{0.0625, 0.5625}",
        "hasCurveFrom": true,
        "hasCurveTo": false,
        "point": "{0.0625, 0.5625}"
      },
      {
        "_class": "curvePoint",
        "cornerRadius": 0,
        "curveFrom": "{-4.2272109443636111e-18, 0.46548220313557542}",
        "curveMode": 2,
        "curveTo": "{4.2272109443636111e-18, 0.53451779686442458}",
        "hasCurveFrom": true,
        "hasCurveTo": true,
        "point": "{0, 0.5}"
      },
      {
        "_class": "curvePoint",
        "cornerRadius": 0,
        "curveFrom": "{0.062499999999999986, 0.4375}",
        "curveMode": 4,
        "curveTo": "{0.027982203135575402, 0.4375}",
        "hasCurveFrom": false,
        "hasCurveTo": true,
        "point": "{0.062499999999999986, 0.4375}"
      }
    ]
  },
  "resizingConstraint": 63,
  "resizingType": 0,
  "rotation": 0,
  "shouldBreakMaskChain": false
}