{
  "_class": "shapeGroup",
  "clippingMaskMode": 0,
  "do_objectID": "5DF20CE8-B0D0-427A-99CC-2409FC2C2D18",
  "exportOptions": {
    "_class": "exportOptions",
    "exportFormats": [
    ],
    "includedLayerIds": [
    ],
    "layerOptions": 0,
    "shouldTrim": false
  },
  "frame": {
    "_class": "rect",
    "constrainProportions": false,
    "height": 16,
    "width": 16,
    "x": 0,
    "y": 0
  },
  "hasClickThrough": false,
  "hasClippingMask": true,
  "isFlippedHorizontal": false,
  "isFlippedVertical": false,
  "isLocked": false,
  "isVisible": true,
  "layerListExpandedType": 1,
  "layers": [
    {
      "class": "shapePath",
      "id": "73B2F596-F056-4449-8B55-59E5713A8D47"
    },
    {
      "class": "shapePath",
      "id": "17075351-49BB-414E-AA2F-9507D9AD351A"
    },
    {
      "class": "oval",
      "id": "5660C71C-CA78-4661-AC14-014A47689E38"
    },
    {
      "class": "oval",
      "id": "9A784686-66F6-40E7-857B-A7851367BD1D"
    },
    {
      "class": "oval",
      "id": "864F7EDF-72D5-4BFD-8503-B1F88B40E732"
    },
    {
      "class": "oval",
      "id": "19641F4D-C492-4E2E-BB62-A506F3D55198"
    },
    {
      "class": "shapePath",
      "id": "C49A49BB-B5F2-4D13-8710-FD097C1E0230"
    },
    {
      "class": "shapePath",
      "id": "C36C422E-48D8-4035-B63A-A6267432B335"
    }
  ],
  "name": "Combined Shape",
  "nameIsFixed": false,
  "resizingConstraint": 63,
  "resizingType": 0,
  "rotation": 0,
  "shouldBreakMaskChain": false,
  "style": {
    "_class": "style",
    "endDecorationType": 0,
    "fills": [
      {
        "_class": "fill",
        "color": {
          "_class": "color",
          "alpha": 1,
          "blue": 0,
          "green": 0,
          "red": 0
        },
        "fillType": 0,
        "isEnabled": true,
        "noiseIndex": 0,
        "noiseIntensity": 0,
        "patternFillType": 1,
        "patternTileScale": 1
      }
    ],
    "miterLimit": 10,
    "startDecorationType": 0
  },
  "windingRule": 0
}