{
  "_class": "shapePath",
  "booleanOperation": -1,
  "do_objectID": "D5A19EF3-1A81-4C62-8683-0DB5F20638A4",
  "edited": true,
  "exportOptions": {
    "_class": "exportOptions",
    "exportFormats": [
    ],
    "includedLayerIds": [
    ],
    "layerOptions": 0,
    "shouldTrim": false
  },
  "frame": {
    "_class": "rect",
    "constrainProportions": false,
    "height": 2,
    "width": 4,
    "x": 4,
    "y": 7.999918147759528
  },
  "isFlippedHorizontal": false,
  "isFlippedVertical": false,
  "isLocked": false,
  "isVisible": true,
  "layerListExpandedType": 0,
  "name": "Path",
  "nameIsFixed": false,
  "path": {
    "_class": "path",
    "isClosed": true,
    "pointRadiusBehaviour": 1,
    "points": [
      {
        "_class": "curvePoint",
        "cornerRadius": 0,
        "curveFrom": "{0.25, 0}",
        "curveMode": 4,
        "curveTo": "{0.11192881254230169, 0}",
        "hasCurveFrom": false,
        "hasCurveTo": true,
        "point": "{0.25, 0}"
      },
      {
        "_class": "curvePoint",
        "cornerRadius": 0,
        "curveFrom": "{0.88807118745769831, 0}",
        "curveMode": 4,
        "curveTo": "{0.75, 0}",
        "hasCurveFrom": true,
        "hasCurveTo": false,
        "point": "{0.75, 0}"
      },
      {
        "_class": "curvePoint",
        "cornerRadius": 0,
        "curveFrom": "{1, 0.77614237491539662}",
        "curveMode": 2,
        "curveTo": "{1, 0.22385762508460338}",
        "hasCurveFrom": true,
        "hasCurveTo": true,
        "point": "{1, 0.5}"
      },
      {
        "_class": "curvePoint",
        "cornerRadius": 0,
        "curveFrom": "{0.75, 1}",
        "curveMode": 4,
        "curveTo": "{0.88807118745769831, 1}",
        "hasCurveFrom": false,
        "hasCurveTo": true,
        "point": "{0.75, 1}"
      },
      {
        "_class": "curvePoint",
        "cornerRadius": 0,
        "curveFrom": "{0.11192881254230169, 1}",
        "curveMode": 4,
        "curveTo": "{0.25, 1}",
        "hasCurveFrom": true,
        "hasCurveTo": false,
        "point": "{0.25, 1}"
      },
      {
        "_class": "curvePoint",
        "cornerRadius": 0,
        "curveFrom": "{0, 0.22385762508460338}",
        "curveMode": 2,
        "curveTo": "{0, 0.77614237491539662}",
        "hasCurveFrom": true,
        "hasCurveTo": true,
        "point": "{0, 0.5}"
      }
    ]
  },
  "resizingConstraint": 63,
  "resizingType": 0,
  "rotation": 0,
  "shouldBreakMaskChain": false
}